Rk,Team,G,Pts/G,TotPts,Comp,Att,Pct,Att/G,Yds,Avg,Yds/G,TD,Int,1st,1st%,Lng,20+,40+,Sck,Rate
1,Miami Dolphins,15,24.1,362,338,584,57.9,38.9,"3,876",6.8,258.4,29,20,0,0.0,59T,0,0,13,81.0
2,San Francisco 49ers,15,30.6,459,322,501,64.3,33.4,"3,750",7.9,250.0,44,14,0,0.0,57T,0,0,29,106.2
3,Denver Broncos,15,25.3,379,285,530,53.8,35.3,"3,654",7.3,243.6,24,19,0,0.0,72T,0,0,30,77.5
4,Washington Redskins,15,25.3,379,247,478,51.7,31.9,"3,495",7.8,233.0,27,18,0,0.0,88T,0,0,27,80.7
5,Cleveland Browns,15,26,390,291,482,60.4,32.1,"3,455",7.5,230.3,27,12,0,0.0,54T,0,0,29,92.0
6,St. Louis Cardinals,15,24.1,362,305,529,57.7,35.3,"3,453",7.3,230.2,25,15,0,0.0,57,0,0,54,84.4
7,Houston Oilers,15,23,345,240,482,49.8,32.1,"3,300",7.3,220.0,24,23,0,0.0,83T,0,0,30,70.8
8,San Diego Chargers,15,16.9,253,303,516,58.7,34.4,"3,280",7.0,218.7,13,23,0,0.0,67,0,0,39,69.9
9,Cincinnati Bengals,15,19,285,255,475,53.7,31.7,"3,213",7.3,214.2,17,20,0,0.0,61T,0,0,32,71.6
10,New York Giants,15,18.7,280,265,499,53.1,33.3,"3,202",7.3,213.5,26,22,0,0.0,63T,0,0,61,75.8
11,Dallas Cowboys,15,22.7,340,288,500,57.6,33.3,"3,191",7.2,212.7,19,20,0,0.0,77T,0,0,52,76.0
12,Chicago Bears,15,23.7,356,272,493,55.2,32.9,"3,090",6.9,206.0,23,24,0,0.0,59T,0,0,48,72.2
13,Los Angeles Raiders,15,20.1,301,247,457,54.0,30.5,"3,070",7.5,204.7,19,18,0,0.0,49,0,0,53,75.8
14,Philadelphia Eagles,15,22.5,337,283,520,54.4,34.7,"3,050",6.8,203.3,26,16,0,0.0,70T,0,0,72,79.8
15,Tampa Bay Buccaneers,15,19.1,286,264,517,51.1,34.5,"3,016",6.5,201.1,22,17,0,0.0,64T,0,0,43,72.3
16,New York Jets,15,22.3,334,302,517,58.4,34.5,"2,959",6.6,197.3,18,15,0,0.0,59,0,0,66,77.7
17,Detroit Lions,15,17.9,269,275,509,54.0,33.9,"2,956",6.2,197.1,16,26,0,0.0,53T,0,0,26,62.1
18,Buffalo Bills,15,18,270,292,516,56.6,34.4,"2,901",6.3,193.4,21,19,0,0.0,47,0,0,37,73.7
19,Indianapolis Colts,15,20,300,255,447,57.0,29.8,"2,852",6.8,190.1,16,16,0,0.0,72T,0,0,24,75.0
20,Minnesota Vikings,15,22.4,336,232,446,52.0,29.7,"2,826",7.1,188.4,21,23,0,0.0,73T,0,0,52,69.4
21,New Orleans Saints,15,28.1,422,227,411,55.2,27.4,"2,774",7.3,184.9,23,12,0,0.0,82T,0,0,29,84.9
22,Atlanta Falcons,15,13.7,205,247,501,49.3,33.4,"2,768",6.2,184.5,17,32,0,0.0,57,0,0,46,53.7
23,Seattle Seahawks,15,24.7,371,237,405,58.5,27.0,"2,712",7.5,180.8,31,21,0,0.0,75T,0,0,36,85.9
24,New England Patriots,15,21.3,320,236,440,53.6,29.3,"2,683",6.7,178.9,22,18,0,0.0,45,0,0,33,74.1
25,Green Bay Packers,15,17,255,234,455,51.4,30.3,"2,681",6.5,178.7,15,17,0,0.0,70T,0,0,45,67.6
26,Kansas City Chiefs,15,18.2,273,236,432,54.6,28.8,"2,619",6.9,174.6,17,17,0,0.0,81T,0,0,48,73.1
27,Los Angeles Rams,15,21.1,317,220,420,52.4,28.0,"2,554",6.5,170.3,16,18,0,0.0,81T,0,0,25,67.9
28,Pittsburgh Steelers,15,19,285,198,429,46.2,28.6,"2,266",5.7,151.1,13,25,0,0.0,63,0,0,27,50.3
