SEL,TEAM,PLAYER,POSITION,SCHOOL
1,Buffalo Bills,Bruce Smith,DE,Virginia Tech
2,Atlanta Falcons,Bill Fralic,G,Pittsburgh
3,Houston Oilers,Ray Childress,DE,Texas A&M
4,Minnesota Vikings,Chris Doleman,DE,Pittsburgh
5,Indianapolis Colts,Duane Bickett,LB,USC
6,Detroit Lions,Lomas Brown,T,Florida
7,Green Bay Packers,Ken Ruettgers,T,USC
8,Tampa Bay Buccaneers,Ron Holmes,DE,Washington
9,Philadelphia Eagles,Kevin Allen,T,Indiana
10,New York Jets,Al Toon,WR,Wisconsin
11,Houston Oilers,Richard Johnson,DB,Wisconsin
12,San Diego Chargers,Jim Lachey,T,Ohio State
13,Cincinnati Bengals,Eddie Brown,WR,Miami (Fla.)
14,Buffalo Bills,Derrick Burroughs,DB,Memphis
15,Kansas City Chiefs,Ethan Horton,TE,North Carolina
16,San Francisco 49ers,Jerry Rice,WR,Mississippi Valley State
17,Dallas Cowboys,Kevin Brooks,DE,Michigan
18,St. Louis Cardinals,Freddie Joe Nunn,DE,Mississippi
19,New York Giants,George Adams,RB,Kentucky
20,Pittsburgh Steelers,Darryl Sims,DE,Wisconsin
21,Los Angeles Rams,Jerry Gray,DB,Texas
22,Chicago Bears,William Perry,DT,Clemson
23,Los Angeles Raiders,Jessie Hester,WR,Florida State
24,New Orleans Saints,Alvin Toles,LB,Tennessee
25,Cincinnati Bengals,Emanuel King,LB,Alabama
26,Denver Broncos,Steven Sewell,RB,Oklahoma
27,Miami Dolphins,Lorenzo Hampton,RB,Florida
28,New England Patriots,Trevor Matich,C,Brigham Young
29,Buffalo Bills,Mark Traynowicz,G,Nebraska
30,Minnesota Vikings,Issiac Holt,DB,Alcorn State
31,Denver Broncos,Vance Johnson,WR,Arizona
32,Indianapolis Colts,Don Anderson,DB,Purdue
33,Washington Redskins,Tory Nixon,DB,San Diego State
34,Detroit Lions,Kevin Glover,C,Maryland
35,Cleveland Browns,Greg Allen,RB,Florida State
36,Houston Oilers,Richard Byrd,DE,Southern Mississippi
37,Philadelphia Eagles,Randall Cunningham,QB,Nevada-Las Vegas
38,New Orleans Saints,Daren Gilbert,T,Cal State-Fullerton
39,San Diego Chargers,Wayne Davis,DB,Indiana State
40,New York Jets,Lester Lyles,DB,Virginia
41,Kansas City Chiefs,Jonathan Hayes,TE,Iowa
42,Buffalo Bills,Chris Burkett,WR,Jackson State
43,Cincinnati Bengals,Carl Zander,LB,Tennessee
44,Dallas Cowboys,Jesse Penn,LB,Virginia Tech
45,Atlanta Falcons,Mike Gann,DE,Notre Dame
46,New York Giants,Stacy Robinson,WR,North Dakota State
47,Pittsburgh Steelers,Mark Behning,T,Nebraska
48,New England Patriots,Garin Veris,DE,Stanford
49,Chicago Bears,Reggie Phillips,DB,Southern Methodist
50,Los Angeles Rams,Chuck Scott,WR,Vanderbilt
51,St. Louis Cardinals,Scott Bergold,T,Wisconsin
52,New England Patriots,Jim Bowman,DB,Central Michigan
53,Seattle Seahawks,Owen Gill,RB,Iowa
54,Denver Broncos,Simon Fletcher,LB,Houston
55,San Diego Chargers,Jeffery Dale,DB,Louisiana State
56,New England Patriots,Ben Thomas,DE,Auburn
57,Buffalo Bills,Frank Reich,QB,Maryland
58,New York Giants,Tyrone Davis,DB,Clemson
59,Minnesota Vikings,Kirk Lowdermilk,C,Ohio State
60,Minnesota Vikings,Tim Meamber,LB,Washington
61,Indianapolis Colts,Anthony Young,DB,Temple
62,Detroit Lions,James Johnson,LB,San Diego State
63,Buffalo Bills,Hal Garner,LB,Utah State
64,Tampa Bay Buccaneers,Ervin Randle,LB,Baylor
65,Miami Dolphins,George Little,DE,Iowa
66,Minnesota Vikings,Tim Long,C,Memphis
67,New York Jets,Donnie Elder,DB,Memphis
68,New Orleans Saints,Jack Del Rio,LB,USC
69,San Diego Chargers,John Hendy,DB,Long Beach State
70,Cincinnati Bengals,Sean Thomas,DB,Texas Christian
71,Green Bay Packers,Rich Moran,G,San Diego State
72,St. Louis Cardinals,Lance Smith,G,Louisiana State
73,New York Giants,Brian Johnston,C,North Carolina
74,Pittsburgh Steelers,Liffort Hobley,DB,Louisiana State
75,San Francisco 49ers,Ricky Moore,RB,Alabama
76,Dallas Cowboys,Crawford Ker,G,Florida
77,Los Angeles Rams,Dale Hatcher,P,Clemson
78,Chicago Bears,James Maness,WR,Texas Christian
79,Los Angeles Raiders,Tim Moffett,WR,Mississippi
80,Los Angeles Raiders,Stefon Adams,DB,East Carolina
81,Seattle Seahawks,Danny Greene,WR,Washington
82,Houston Oilers,Mike Kelley,C,Notre Dame
83,Miami Dolphins,Alex Moyer,LB,Northwestern
84,New England Patriots,Audray McMillian,DB,Houston
85,Minnesota Vikings,Buster Rhymes,WR,Oklahoma
86,Buffalo Bills,Andre Reed,WR,Kutztown
87,Houston Oilers,Tom Briehl,LB,Stanford
88,Indianapolis Colts,Willie Broughton,DE,Miami (Fla.)
89,Atlanta Falcons,Emile Harry,WR,Stanford
90,Detroit Lions,Kevin Hancock,LB,Baylor
91,Miami Dolphins,Mike Smith,DB,Texas-El Paso
92,Tampa Bay Buccaneers,Mike Heaven,--,Illinois
93,Philadelphia Eagles,Greg Naron,--,North Carolina
94,New York Jets,Doug Allen,--,Arizona State
95,New Orleans Saints,Billy Allen,--,Florida State
96,San Diego Chargers,Ralf Mojsiejenko,P,Michigan State
97,Cincinnati Bengals,Anthony Tuggle,DB,Nicholls State
98,Green Bay Packers,Walter Stanley,WR,Mesa State
99,Kansas City Chiefs,Bob Olderman,G,Virginia
100,New York Giants,Mark Bavaro,TE,Notre Dame
101,Pittsburgh Steelers,Dan Turk,C,Wisconsin
102,New England Patriots,Tom Toth,G,Western Michigan
103,Dallas Cowboys,Robert Lavette,RB,Georgia Tech
104,St. Louis Cardinals,Ron Wolfley,RB,West Virginia
105,Chicago Bears,Kevin Butler,K,Georgia
106,Minnesota Vikings,Kyle Morrell,DB,Brigham Young
107,Los Angeles Raiders,Jamie Kimmel,LB,Syracuse
108,New England Patriots,Gerard Phelan,--,Boston College
109,Seattle Seahawks,Tony Davis,--,Missouri
110,Denver Broncos,Keli McGregor,TE,Colorado State
111,Miami Dolphins,Jeff Dellenbach,OT,Wisconsin
112,Buffalo Bills,Dale Hellestrae,T,Southern Methodist
113,Los Angeles Rams,Kevin Greene,LB,Auburn
114,Dallas Cowboys,Herschel Walker,RB,Georgia
115,Minnesota Vikings,Mark MacDonald,G,Boston College
116,St. Louis Cardinals,K.D. Dunn,TE,Clemson
117,Indianapolis Colts,Roger Caron,T,Harvard
118,Detroit Lions,Joe McIntosh,RB,North Carolina State
119,Dallas Cowboys,Matt Darwin,--,Texas A&M
120,New York Jets,Troy Benson,LB,Pittsburgh
121,Philadelphia Eagles,Dwayne Jiles,LB,Texas Tech
122,Washington Redskins,Raphel Cherry,DB,Hawaii
123,Seattle Seahawks,Mark Napolitan,--,Michigan State
124,New York Jets,Brian Luft,--,USC
125,Green Bay Packers,Brian Noble,LB,Arizona State
126,Kansas City Chiefs,Bruce King,RB,Purdue
127,Cincinnati Bengals,Tony Degrate,NT,Texas
128,Seattle Seahawks,Arnold Brown,DB,North Carolina Central
129,Cincinnati Bengals,Lee Davis,DB,Mississippi
130,Buffalo Bills,Jimmy Teal,WR,Texas A&M
131,St. Louis Cardinals,Louis Wong,--,Brigham Young
132,New York Giants,Tracy Henderson,--,Iowa State
133,Houston Oilers,Frank Bush,LB,North Carolina State
134,New York Jets,Tony Smith,--,San Jose State
135,Los Angeles Raiders,Dan Reeder,RB,Delaware
136,Pittsburgh Steelers,Cam Jacobs,LB,Kentucky
137,Seattle Seahawks,Johnnie Jones,--,Tennessee
138,Houston Oilers,Lee Johnson,P,Brigham Young
139,Denver Broncos,Billy Hinson,G,Florida
140,San Francisco 49ers,Bruce Collie,T,Texas-Arlington
141,Buffalo Bills,Mike Hamby,DE,Utah State
142,Minnesota Vikings,Steve Bono,QB,UCLA
143,Los Angeles Raiders,Rusty Hilger,QB,Oklahoma State
144,Dallas Cowboys,Kurt Ploeger,DE,Gustavus Adolphus
145,Miami Dolphins,George Shorthose,WR,Missouri
146,Detroit Lions,Stan Short,--,Penn State
147,Cleveland Browns,Mark Krerowicz,G,Ohio State
148,Cincinnati Bengals,Eric Stokes,C,Northeastern
149,Kansas City Chiefs,John Bostic,DB,Bethune-Cookman
150,San Diego Chargers,Terry Lewis,DB,Michigan State
151,New York Jets,Jeff Deaton,--,Stanford
152,Atlanta Falcons,Reggie Pleasant,DB,Clemson
153,Houston Oilers,Joe Krakoski,LB,Washington
154,Cincinnati Bengals,Keith Lester,TE,Murray State
155,Green Bay Packers,Mark Lewis,TE,Texas A&M
156,Philadelphia Eagles,Ken Reeves,T,Texas A&M
157,Dallas Cowboys,Matt Moran,T,Stanford
158,St. Louis Cardinals,Jay Novacek,TE,Wyoming
159,New York Giants,Jack Oliver,T,Memphis
160,Pittsburgh Steelers,Gregg Carr,LB,Auburn
161,Los Angeles Rams,Mike Young,WR,UCLA
162,Los Angeles Rams,Damone Johnson,TE,Cal Poly-S.L.O.
163,Washington Redskins,Danzell Lee,TE,Lamar
164,Minnesota Vikings,Tim Newton,DT,Florida
165,New York Giants,Mark Pembrook,--,Fullerton Coll. CA (J.C.)
166,New York Jets,Rich Miano,DB,Hawaii
167,Miami Dolphins,Ron Davenport,RB,Louisville
168,San Francisco 49ers,Scott Barry,--,California-Davis
169,Buffalo Bills,Ron Pitts,DB,UCLA
170,Houston Oilers,Mike Akiu,WR,Hawaii
171,Green Bay Packers,Eric Wilson,LB,Maryland
172,Cincinnati Bengals,Kim Locklin,--,New Mexico State
173,Indianapolis Colts,James Harbour,WR,Mississippi
174,Detroit Lions,Tony Staten,--,Angelo State
175,Cleveland Browns,Reggie Langhorne,WR,Elizabeth City State
176,Tampa Bay Buccaneers,Mike Prior,DB,Illinois State
177,Washington Redskins,Jamie Harris,--,Oklahoma State
178,Dallas Cowboys,Karl Powe,WR,Alabama State
179,New Orleans Saints,Eric Martin,WR,Louisiana State
180,Kansas City Chiefs,Vince Thomson,--,Missouri Western State
181,Cincinnati Bengals,Joe Walter,T,Texas Tech
182,Green Bay Packers,Gary Ellerson,RB,Wisconsin
183,Kansas City Chiefs,Dave Heffernan,G,Miami (Fla.)
184,Dallas Cowboys,Jim Herrmann,--,Brigham Young
185,Washington Redskins,Lionel Vital,RB,Nicholls State
186,Los Angeles Raiders,Kevin Belcher,T,Wisconsin
187,Pittsburgh Steelers,Alan Andrews,--,Rutgers
188,Los Angeles Raiders,Mark Pattison,WR,Washington
189,Los Angeles Rams,Danny Bradley,RB,Oklahoma
190,Chicago Bears,Charles Bennett,DE,Louisiana-Lafayette
191,Los Angeles Raiders,Bret Clark,DB,Nebraska
192,Los Angeles Raiders,Nick Haden,G,Penn State
193,Seattle Seahawks,Ron Mattes,T,Virginia
194,Denver Broncos,Dallas Cameron,--,Miami (Fla.)
195,Miami Dolphins,Fuad Reveiz,K,Tennessee
196,San Diego Chargers,Mark Fellows,LB,Montana State
197,Buffalo Bills,Jacque Robinson,RB,Washington
198,Minnesota Vikings,Nikita Blair,--,Texas-El Paso
199,Houston Oilers,Chuck Thomas,C,Oklahoma
200,Indianapolis Colts,Ricky Nichols,WR,East Carolina
201,Atlanta Falcons,Ashley Lee,--,Virginia Tech
202,Detroit Lions,Scott Caldwell,RB,Texas-Arlington
203,Cleveland Browns,Fred Banks,WR,Liberty
204,Tampa Bay Buccaneers,Phil Freeman,WR,Arizona
205,Philadelphia Eagles,Tom Polley,LB,Nevada-Las Vegas
206,New Orleans Saints,Joe Kohlbrand,LB,Miami (Fla.)
207,San Diego Chargers,Curtis Adams,RB,Central Michigan
208,New York Jets,Matt Monger,LB,Oklahoma State
209,Green Bay Packers,Ken Stills,DB,Wisconsin
210,Kansas City Chiefs,Ira Hillary,WR,South Carolina
211,Cincinnati Bengals,Dave Strobel,--,Iowa
212,St. Louis Cardinals,Rob Monaco,C,Vanderbilt
213,New York Giants,Lee Rouson,RB,Colorado
214,Pittsburgh Steelers,Harry Newsome,P,Wake Forest
215,Atlanta Falcons,Ronnie Washington,LB,Louisiana-Monroe
216,Dallas Cowboys,Leon Gonzalez,WR,Bethune-Cookman
217,Chicago Bears,Steve Buxton,--,Indiana State
218,Los Angeles Rams,Marlon McIntyre,--,Pittsburgh
219,Washington Redskins,Barry Wilburn,DB,Mississippi
220,Los Angeles Raiders,Leonard Wingate,DT,South Carolina State
221,Seattle Seahawks,Judious Lewis,--,Arkansas State
222,Denver Broncos,Eric Riley,--,Florida State
223,Miami Dolphins,Dan Sharp,TE,Texas Christian
224,New England Patriots,Milford Hodge,DE,Washington State
225,Buffalo Bills,Glenn Jones,--,Norfolk State
226,Houston Oilers,Steve Tasker,WR,Northwestern
227,Minnesota Vikings,Jaime Covington,RB,Syracuse
228,Atlanta Falcons,Micah Moon,--,North Carolina
229,Indianapolis Colts,Mark Boyer,TE,USC
230,Detroit Lions,June James,LB,Texas
231,Philadelphia Eagles,Dave Toub,--,Texas-El Paso
232,Tampa Bay Buccaneers,Steve Calabria,--,Colgate
233,Philadelphia Eagles,Joe Drake,NT,Arizona
234,San Diego Chargers,Paul Berner,--,U. of Pacific
235,New York Jets,Mike Waters,TE,San Diego State
236,New Orleans Saints,Earl Johnson,DB,South Carolina
237,Kansas City Chiefs,Mike Armentrout,--,Missouri State
238,Cincinnati Bengals,Keith Cruise,--,Northwestern
239,Green Bay Packers,Morris Johnson,--,Alabama A&M
240,New York Giants,Frank Wright,--,South Carolina
241,Pittsburgh Steelers,Fred Small,LB,Washington
242,Pittsburgh Steelers,Andre Harris,--,Minnesota
243,Dallas Cowboys,Scott Strasburger,--,Nebraska
244,St. Louis Cardinals,Scott Williams,RB,Georgia
245,Los Angeles Rams,Gary Swanson,--,Cal Poly-S.L.O.
246,Los Angeles Raiders,Chris Sydnor,--,Penn State
247,Washington Redskins,Mitch Geier,T,Troy State
248,Seattle Seahawks,Bob Otto,DE,Idaho State
249,Denver Broncos,Daryl Smith,DB,North Alabama
250,Chicago Bears,Thomas Sanders,RB,Texas A&M
251,Miami Dolphins,Adam Hinds,--,Oklahoma State
252,San Diego Chargers,Dan Remsberg,T,Abilene Christian
253,Buffalo Bills,Chris Babyar,--,Illinois
254,Minnesota Vikings,Juan Johnson,--,Langston
255,Houston Oilers,Mike Golic,DT,Notre Dame
256,Indianapolis Colts,Andre Pinesett,--,Cal State-Fullerton
257,Atlanta Falcons,Brent Martin,--,Stanford
258,Detroit Lions,Clayton Beauford,WR,Auburn
259,Cleveland Browns,Larry Williams,G,Notre Dame
260,Tampa Bay Buccaneers,Donald Igwebuike,K,Clemson
261,Philadelphia Eagles,Mark Kelso,DB,William & Mary
262,New York Jets,Kerry Glenn,DB,Minnesota
263,Washington Redskins,Terry Orr,TE,Texas
264,San Diego Chargers,David King,DB,Auburn
265,Cincinnati Bengals,Bernard King,--,Syracuse
266,Green Bay Packers,Ronnie Burgess,DB,Wake Forest
267,Kansas City Chiefs,Jeff Smith,RB,Nebraska
268,Pittsburgh Steelers,Oliver White,--,Kentucky
269,Denver Broncos,Buddy Funck,--,New Mexico
270,Dallas Cowboys,Joe Jones,TE,Virginia Tech
271,St. Louis Cardinals,Dennis Williams,--,Furman
272,New York Giants,Gregg Dubroc,--,Louisiana State
273,Chicago Bears,Pat Coryatt,--,Baylor
274,Los Angeles Rams,Duval Love,G,UCLA
275,Los Angeles Raiders,Reggie McKenzie,LB,Tennessee
276,Los Angeles Raiders,Albert Myres,--,Tulsa
277,Seattle Seahawks,John Conner,--,Arizona
278,Denver Broncos,Ron Anderson,--,Southern Methodist
279,Miami Dolphins,Mike Pendleton,--,Indiana
280,Seattle Seahawks,James Bowers,--,Memphis
281,Houston Oilers,Willie Drewrey,WR,West Virginia
282,Buffalo Bills,James Seawright,--,South Carolina
283,Minnesota Vikings,Tim Williams,--,North Carolina A&T
284,Atlanta Falcons,John Ayres,--,Illinois
285,Los Angeles Rams,Doug Flutie,QB,Boston College
286,Detroit Lions,Kevin Harris,--,Georgia
287,Cleveland Browns,Travis Tucker,TE,Southern Connecticut State
288,Tampa Bay Buccaneers,Punkin Williams,--,Memphis
289,Philadelphia Eagles,Herman Hunter,RB,Tennessee State
290,Washington Redskins,Raleigh McKenzie,G,Tennessee
291,San Diego Chargers,Jeff Smith,--,Kentucky
292,New York Jets,Brad White,--,Texas Tech
293,Kansas City Chiefs,Chris Jackson,--,Southern Methodist
294,Green Bay Packers,Joe Shield,QB,Trinity (Conn.)
295,New England Patriots,Paul Lewis,--,Boston U.
296,Cincinnati Bengals,Harold Stanfield,--,Mississippi College
297,Dallas Cowboys,Neal Dellocono,--,UCLA
298,St. Louis Cardinals,Ricky Anderson,--,Vanderbilt
299,New York Giants,Al Young,--,Virginia Tech
300,Pittsburgh Steelers,Terry Matichak,--,Missouri
301,Los Angeles Rams,Kevin Brown,--,Northwestern
302,Chicago Bears,Jim Morrissey,LB,Michigan State
303,Los Angeles Raiders,Steve Strachan,RB,Boston College
304,Washington Redskins,Garry Kimble,DB,Sam Houston State
305,Seattle Seahawks,Louis Cooper,LB,Western Carolina
306,Denver Broncos,Gary Rolle,--,Florida
307,Miami Dolphins,Mike Jones,--,Tulane
308,San Francisco 49ers,David Wood,--,Arizona
309,Washington Redskins,Dean Hamel,DT,Tulsa
310,Minnesota Vikings,Byron Jones,--,Tulsa
311,Houston Oilers,Mark Vonder Haar,--,Minnesota
312,Indianapolis Colts,Dave Burnette,T,Arkansas
313,Atlanta Falcons,Ken Whisenhunt,TE,Georgia Tech
314,Detroit Lions,Mike Weaver,--,Georgia
315,Cleveland Browns,Shane Swanson,WR,Nebraska
316,Tampa Bay Buccaneers,Jim Rockford,DB,Oklahoma
317,Philadelphia Eagles,Todd Russell,--,Boston College
318,San Diego Chargers,Tony Simmons,DE,Tennessee
319,New York Jets,Bill Wallace,--,Pittsburgh
320,New Orleans Saints,Treg Songy,DB,Tulane
321,Kansas City Chiefs,Harper LeBel,TE,Colorado State
322,Cincinnati Bengals,Louis Garza,--,New Mexico State
323,Green Bay Packers,Jim Meyer,--,Arizona State
324,Dallas Cowboys,Karl Jordan,--,Vanderbilt
325,St. Louis Cardinals,Lonnie Young,DB,Michigan State
326,New York Giants,Herb Welch,DB,UCLA
327,Pittsburgh Steelers,Jeff Sanchez,--,Georgia
328,New England Patriots,Tony Mumford,RB,Penn State
329,San Diego Chargers,Bret Pearson,--,Wisconsin
330,Tampa Bay Buccaneers,James Melka,LB,Wisconsin
331,Washington Redskins,Bryant Winn,LB,Houston
332,Los Angeles Raiders,Raymond Polk,--,Oklahoma State
333,Buffalo Bills,Paul Woodside,K,West Virginia
334,Denver Broncos,Dan Lynch,--,Washington State
335,Miami Dolphins,Ray Noble,--,California
336,San Francisco 49ers,Donald Chumley,--,Georgia