SEL,TEAM,PLAYER,POSITION,SCHOOL
1,Houston Texans,Mario Williams,DE,North Carolina State
2,New Orleans Saints,Reggie Bush,RB,USC
3,Tennessee Titans,Vince Young,QB,Texas
4,New York Jets,D'Brickashaw Ferguson,T,Virginia
5,Green Bay Packers,A.J. Hawk,OLB,Ohio State
6,San Francisco 49ers,Vernon Davis,TE,Maryland
7,Oakland Raiders,Michael Huff,SS,Texas
8,Buffalo Bills,Donte Whitner,SS,Ohio State
9,Detroit Lions,Ernie Sims,OLB,Florida State
10,Arizona Cardinals,Matt Leinart,QB,USC
11,Denver Broncos,Jay Cutler,QB,Vanderbilt
12,Baltimore Ravens,Haloti Ngata,DT,Oregon
13,Cleveland Browns,Kamerion Wimbley,OLB,Florida State
14,Philadelphia Eagles,Brodrick Bunkley,DT,Florida State
15,St. Louis Rams,Tye Hill,CB,Clemson
16,Miami Dolphins,Jason Allen,DB,Tennessee
17,Minnesota Vikings,Chad Greenway,LB,Iowa
18,Dallas Cowboys,Bobby Carpenter,LB,Ohio State
19,San Diego Chargers,Antonio Cromartie,CB,Florida State
20,Kansas City Chiefs,Tamba Hali,DE,Penn State
21,New England Patriots,Laurence Maroney,RB,Minnesota
22,San Francisco 49ers,Manny Lawson,OLB,North Carolina State
23,Tampa Bay Buccaneers,Davin Joseph,G,Oklahoma
24,Cincinnati Bengals,Johnathan Joseph,CB,South Carolina
25,Pittsburgh Steelers,Santonio Holmes,WR,Ohio State
26,Buffalo Bills,John McCargo,DT,North Carolina State
27,Carolina Panthers,DeAngelo Williams,RB,Memphis
28,Jacksonville Jaguars,Marcedes Lewis,TE,UCLA
29,New York Jets,Nick Mangold,C,Ohio State
30,Indianapolis Colts,Joseph Addai,RB,Louisiana State
31,Seattle Seahawks,Kelly Jennings,CB,Miami (Fla.)
32,New York Giants,Mathias Kiwanuka,DE,Boston College
33,Houston Texans,DeMeco Ryans,MLB,Alabama
34,Cleveland Browns,D'Qwell Jackson,ILB,Maryland
35,Washington Redskins,Rocky McIntosh,LB,Miami (Fla.)
36,New England Patriots,Chad Jackson,WR,Florida
37,Atlanta Falcons,Jimmy Williams,CB,Virginia Tech
38,Oakland Raiders,Thomas Howard,OLB,Texas-El Paso
39,Philadelphia Eagles,Winston Justice,T,USC
40,Detroit Lions,Daniel Bullocks,SS,Nebraska
41,Arizona Cardinals,Deuce Lutui,G,USC
42,Chicago Bears,Danieal Manning,FS,Abilene Christian
43,New Orleans Saints,Roman Harper,SS,Alabama
44,New York Giants,Sinorice Moss,WR,Miami (Fla.)
45,Tennessee Titans,LenDale White,RB,USC
46,St. Louis Rams,Joe Klopfenstein,TE,Colorado
47,Green Bay Packers,Daryn Colledge,G,Boise State
48,Minnesota Vikings,Cedric Griffin,CB,Texas
49,New York Jets,Kellen Clemens,QB,Oregon
50,San Diego Chargers,Marcus McNeill,T,Auburn
51,Minnesota Vikings,Ryan Cook,C,New Mexico
52,Green Bay Packers,Greg Jennings,WR,Western Michigan
53,Dallas Cowboys,Anthony Fasano,TE,Notre Dame
54,Kansas City Chiefs,Bernard Pollard,DB,Purdue
55,Cincinnati Bengals,Andrew Whitworth,T,Louisiana State
56,Baltimore Ravens,Chris Chester,C,Oklahoma
57,Chicago Bears,Devin Hester,DB,Miami (Fla.)
58,Carolina Panthers,Richard Marshall,CB,Fresno State
59,Tampa Bay Buccaneers,Jeremy Trueblood,T,Boston College
60,Jacksonville Jaguars,Maurice Jones-Drew,RB,UCLA
61,Denver Broncos,Tony Scheffler,TE,Western Michigan
62,Indianapolis Colts,Tim Jennings,CB,Georgia
63,Seattle Seahawks,Darryl Tapp,DE,Virginia Tech
64,Minnesota Vikings,Tarvaris Jackson,QB,Alabama State
65,Houston Texans,Charles Spencer,T,Pittsburgh
66,Houston Texans,Eric Winston,T,Miami (Fla.)
67,Green Bay Packers,Abdul Hodge,LB,Iowa
68,St. Louis Rams,Claude Wroten,DT,Louisiana State
69,Oakland Raiders,Paul McQuistan,G,Weber State
70,Buffalo Bills,Ashton Youboty,CB,Ohio State
71,Philadelphia Eagles,Chris Gocong,LB,Cal Poly-S.L.O.
72,Arizona Cardinals,Leonard Pope,TE,Georgia
73,Chicago Bears,Dusty Dvoracek,DT,Oklahoma
74,Detroit Lions,Brian Calhoun,RB,Wisconsin
75,Green Bay Packers,Jason Spitz,G,Louisville
76,New York Jets,Anthony Schlegel,LB,Ohio State
77,St. Louis Rams,Jon Alston,LB,Stanford
78,Cleveland Browns,Travis Wilson,WR,Oklahoma
79,Atlanta Falcons,Jerious Norwood,RB,Mississippi State
80,Jacksonville Jaguars,Clint Ingram,OLB,Oklahoma
81,San Diego Chargers,Charlie Whitehurst,QB,Clemson
82,Miami Dolphins,Derek Hagan,WR,Arizona State
83,Pittsburgh Steelers,Anthony Smith,DB,Syracuse
84,San Francisco 49ers,Brandon Williams,WR,Wisconsin
85,Kansas City Chiefs,Brodie Croyle,QB,Alabama
86,New England Patriots,David Thomas,TE,Texas
87,Baltimore Ravens,David Pittman,DB,Northwestern State-Louisiana
88,Carolina Panthers,James Anderson,LB,Virginia Tech
89,Carolina Panthers,Rashad Butler,T,Miami (Fla.)
90,Tampa Bay Buccaneers,Maurice Stovall,WR,Notre Dame
91,Cincinnati Bengals,Frostee Rucker,DE,USC
92,Dallas Cowboys,Jason Hatcher,DE,Grambling State
93,St. Louis Rams,Dominique Byrd,TE,USC
94,Indianapolis Colts,Freddie Keiaho,LB,San Diego State
95,Pittsburgh Steelers,Willie Reid,WR,Florida State
96,New York Giants,Gerris Wilkinson,LB,Georgia Tech
97,New York Jets,Eric Smith,DB,Michigan State
98,Houston Texans,Owen Daniels,TE,Wisconsin
99,Philadelphia Eagles,Max Jean-Gilles,G,Georgia
100,San Francisco 49ers,Michael Robinson,RB,Penn State
101,Oakland Raiders,Darnell Bing,LB,USC
102,Tennessee Titans,Calvin Lowry,DB,Penn State
103,New York Jets,Brad Smith,WR,Missouri
104,Green Bay Packers,Cory Rodgers,WR,Texas Christian
105,Buffalo Bills,Ko Simpson,FS,South Carolina
106,New England Patriots,Garrett Mills,RB,Tulsa
107,Arizona Cardinals,Gabe Watson,DT,Michigan
108,New Orleans Saints,Jahri Evans,G,Bloomsburg
109,Philadelphia Eagles,Jason Avant,WR,Michigan
110,Cleveland Browns,Leon Williams,LB,Miami (Fla.)
111,Baltimore Ravens,Demetrius Williams,WR,Oregon
112,Cleveland Browns,Isaac Sowells,G,Indiana
113,St. Louis Rams,Victor Adeyanju,DE,Indiana
114,Miami Dolphins,Joseph Toledo,T,Washington
115,Green Bay Packers,Will Blackmon,CB,Boston College
116,Tennessee Titans,Stephen Tulloch,LB,North Carolina State
117,New York Jets,Leon Washington,RB,Florida State
118,New England Patriots,Stephen Gostkowski,K,Memphis
119,Denver Broncos,Brandon Marshall,WR,Central Florida
120,Chicago Bears,Jamar Williams,LB,Arizona State
121,Carolina Panthers,Nate Salley,DB,Ohio State
122,Tampa Bay Buccaneers,Alan Zemaitis,CB,Penn State
123,Cincinnati Bengals,Domata Peko,DT,Michigan State
124,New York Giants,Barry Cofield,NT,Northwestern
125,Dallas Cowboys,Skyler Green,WR,Louisiana State
126,Denver Broncos,Elvis Dumervil,DE,Louisville
127,Minnesota Vikings,Ray Edwards,DE,Purdue
128,Seattle Seahawks,Rob Sims,G,Ohio State
129,New York Giants,Guy Whimper,T,East Carolina
130,Denver Broncos,Domenik Hixon,WR,Akron
131,Pittsburgh Steelers,Willie Colon,T,Hofstra
132,Baltimore Ravens,P.J. Daniels,RB,Georgia Tech
133,Pittsburgh Steelers,Orien Harris,DT,Miami (Fla.)
134,Buffalo Bills,Kyle Williams,DT,Louisiana State
135,New Orleans Saints,Rob Ninkovich,DE,Purdue
136,New England Patriots,Ryan O'Callaghan,T,California
137,Tennessee Titans,Terna Nande,LB,Miami (Ohio)
138,Dallas Cowboys,Pat Watkins,FS,Florida State
139,Atlanta Falcons,Quinn Ojinnaka,T,Syracuse
140,San Francisco 49ers,Parys Haralson,DE,Tennessee
141,Detroit Lions,Jonathan Scott,T,Texas
142,Arizona Cardinals,Brandon Johnson,LB,Louisville
143,Buffalo Bills,Brad Butler,T,Virginia
144,St. Louis Rams,Marques Hagans,WR,Virginia
145,Cleveland Browns,Jerome Harrison,RB,Washington State
146,Baltimore Ravens,Dawan Landry,SS,Georgia Tech
147,Philadelphia Eagles,Jeremy Bloom,WR,Colorado
148,Green Bay Packers,Ingle Martin,QB,Furman
149,Minnesota Vikings,Greg Blue,DB,Georgia
150,New York Jets,Jason Pociask,TE,Wisconsin
151,San Diego Chargers,Tim Dobbins,LB,Iowa State
152,Cleveland Browns,DeMario Minter,CB,Georgia
153,Washington Redskins,Anthony Montgomery,DT,Minnesota
154,Kansas City Chiefs,Marcus Maxey,CB,Miami (Fla.)
155,Carolina Panthers,Jeff King,TE,Virginia Tech
156,Tampa Bay Buccaneers,Julian Jenkins,DE,Stanford
157,Cincinnati Bengals,A.J. Nicholson,LB,Florida State
158,New York Giants,Charlie Peprah,DB,Alabama
159,Chicago Bears,Mark Anderson,DE,Alabama
160,Jacksonville Jaguars,Brent Hawkins,LB,Illinois State
161,Denver Broncos,Chris Kuper,G,North Dakota
162,Indianapolis Colts,Michael Toudouze,G,Texas Christian
163,Seattle Seahawks,David Kirtman,FB,USC
164,Pittsburgh Steelers,Omar Jacobs,QB,Bowling Green State
165,Green Bay Packers,Tony Moll,G,Nevada-Reno
166,Baltimore Ravens,Quinn Sypniewski,TE,Colorado
167,Pittsburgh Steelers,Charles Davis,TE,Purdue
168,Philadelphia Eagles,Omar Gaither,LB,Tennessee
169,Tennessee Titans,Jesse Mahelona,DT,Tennessee
170,Houston Texans,Wali Lundy,RB,Virginia
171,New Orleans Saints,Mike Hass,WR,Oregon State
172,Tennessee Titans,Jonathan Orr,WR,Wisconsin
173,Washington Redskins,Reed Doughty,DB,Northern Colorado
174,New Orleans Saints,Josh Lay,CB,Pittsburgh
175,San Francisco 49ers,Delanie Walker,TE,Central Missouri State
176,Oakland Raiders,Kevin Boothe,G,Cornell
177,Arizona Cardinals,Jonathan Lewis,DT,Virginia Tech
178,Buffalo Bills,Keith Ellison,OLB,Oregon State
179,Detroit Lions,Dee McCann,CB,West Virginia
180,Cleveland Browns,Lawrence Vickers,FB,Colorado
181,Cleveland Browns,Baba Oshinowo,DT,Stanford
182,Dallas Cowboys,Montavious Stanley,DT,Louisville
183,Green Bay Packers,Johnny Jolly,DT,Texas A&M
184,Atlanta Falcons,Adam Jennings,WR,Fresno State
185,Green Bay Packers,Tyrone Culver,DB,Fresno State
186,Kansas City Chiefs,Tre' Stallings,G,Mississippi
187,San Diego Chargers,Jeromey Clary,T,Kansas State
188,San Diego Chargers,Kurt Smith,K,Virginia
189,New York Jets,Drew Coleman,CB,Texas Christian
190,Kansas City Chiefs,Jeff Webb,WR,San Diego State
191,New England Patriots,Jeremy Mincey,LB,Florida
192,San Francisco 49ers,Marcus Hudson,DB,North Carolina State
193,Cincinnati Bengals,Reggie McNeal,WR,Texas A&M
194,Tampa Bay Buccaneers,Bruce Gradkowski,QB,Toledo
195,Chicago Bears,J.D. Runnels,RB,Oklahoma
196,Washington Redskins,Kedric Golston,DT,Georgia
197,San Francisco 49ers,Melvin Oliver,DE,Louisiana State
198,Denver Broncos,Greg Eslinger,C,Minnesota
199,Indianapolis Colts,Charlie Johnson,T,Oklahoma State
200,Chicago Bears,Tyler Reed,G,Penn State
201,Pittsburgh Steelers,Marvin Philip,C,California
202,Tampa Bay Buccaneers,T.J. Williams,TE,North Carolina State
203,Baltimore Ravens,Sam Koch,P,Nebraska
204,Philadelphia Eagles,LaJuan Ramsey,DT,USC
205,New England Patriots,Dan Stevenson,G,Notre Dame
206,New England Patriots,Le Kevin Smith,DT,Nebraska
207,Indianapolis Colts,Antoine Bethea,SS,Howard
208,Baltimore Ravens,Derrick Martin,CB,Wyoming
209,Cincinnati Bengals,Ethan Kilmer,DB,Penn State
210,New Orleans Saints,Zach Strief,T,Northwestern
211,Dallas Cowboys,Pat McQuistan,T,Weber State
212,Miami Dolphins,Fred Evans,DT,Texas State
213,Jacksonville Jaguars,James Wyche,DE,Syracuse
214,Oakland Raiders,Chris Morris,C,Michigan State
215,Tennessee Titans,Cortland Finnegan,DB,Samford
216,Buffalo Bills,Terrance Pennington,T,New Mexico
217,Detroit Lions,Fred Matua,G,USC
218,Arizona Cardinals,Todd Watkins,WR,Brigham Young
219,Baltimore Ravens,Ryan LaCasse,LB,Syracuse
220,New York Jets,Titus Adams,DT,Nebraska
221,St. Louis Rams,Tim McGarigle,LB,Northwestern
222,Cleveland Browns,Justin Hamilton,DB,Virginia Tech
223,Atlanta Falcons,D.J. Shockley,QB,Georgia
224,Dallas Cowboys,E.J. Whitley,C,Texas Tech
225,San Diego Chargers,Chase Page,DT,North Carolina
226,Miami Dolphins,Rodrique Wright,DT,Texas
227,San Diego Chargers,Jimmy Martin,C,Virginia Tech
228,Kansas City Chiefs,Jarrad Page,DB,UCLA
229,New England Patriots,Willie Andrews,CB,Baylor
230,Washington Redskins,Kili Lefotu,G,Arizona
231,Cincinnati Bengals,Bennie Brazell,WR,Louisiana State
232,New York Giants,Gerrick McPhearson,DB,Maryland
233,Miami Dolphins,Devin Aromashodu,WR,Auburn
234,Carolina Panthers,Will Montgomery,G,Virginia Tech
235,Tampa Bay Buccaneers,Justin Phinisee,CB,Oregon
236,Jacksonville Jaguars,Dee Webb,CB,Florida
237,Carolina Panthers,Stanley McClover,DE,Auburn
238,Indianapolis Colts,T.J. Rushing,CB,Stanford
239,Seattle Seahawks,Ryan Plackemeier,P,Wake Forest
240,Pittsburgh Steelers,Cedric Humes,RB,Virginia Tech
241,Tampa Bay Buccaneers,Charles Bennett,DE,Clemson
242,St. Louis Rams,Mark Setterstrom,G,Minnesota
243,St. Louis Rams,Tony Palmer,G,Missouri
244,Tampa Bay Buccaneers,Tim Massaquoi,TE,Michigan
245,Tennessee Titans,Spencer Toone,LB,Utah
246,Tennessee Titans,Quinton Ganther,RB,Utah
247,Detroit Lions,Anthony Cannon,LB,Tulane
248,Buffalo Bills,Aaron Merz,G,California
249,Seattle Seahawks,Ben Obomanu,WR,Auburn
250,Washington Redskins,Kevin Simon,LB,Tennessee
251,Houston Texans,David Anderson,WR,Colorado State
252,New Orleans Saints,Marques Colston,WR,Hofstra
253,Green Bay Packers,Dave Tollefson,DE,Northwest Missouri State
254,San Francisco 49ers,Vickiel Vaughn,DB,Arkansas
255,Oakland Raiders,Kevin McMahan,WR,Maine