SEL,TEAM,PLAYER,POSITION,SCHOOL
1,Atlanta Falcons,Steve Bartkowski,QB,California
2,Dallas Cowboys,Randy White,DT,Maryland
3,Baltimore Colts,Ken Huff,G,North Carolina
4,Chicago Bears,Walter Payton,RB,Jackson State
5,Cleveland Browns,Mack Mitchell,DE,Houston
6,Houston Oilers,Robert Brazile,LB,Jackson State
7,New Orleans Saints,Larry Burton,WR,Purdue
8,San Diego Chargers,Gary Johnson,DT,Grambling State
9,Los Angeles Rams,Mike Fanning,DT,Notre Dame
10,San Francisco 49ers,Jimmy Webb,DT,Mississippi State
11,Los Angeles Rams,Dennis Harrah,G,Miami (Fla.)
12,New Orleans Saints,Kurt Schumacher,G,Ohio State
13,Detroit Lions,Lynn Boden,G,South Dakota State
14,Cincinnati Bengals,Glenn Cameron,LB,Florida
15,Houston Oilers,Don Hardeman,RB,Texas A&M - Kingsville
16,New England Patriots,Russ Francis,TE,Oregon
17,Denver Broncos,Louis Wright,DB,San Jose State
18,Dallas Cowboys,Tom Henderson,LB,Langston
19,Buffalo Bills,Tom Ruud,LB,Nebraska
20,Los Angeles Rams,Doug France,T,Ohio State
21,St. Louis Cardinals,Tim Gray,DB,Texas A&M
22,San Diego Chargers,Mike Williams,DB,Louisiana State
23,Miami Dolphins,Darryl Carlton,T,Tampa
24,Oakland Raiders,Neal Colzie,DB,Ohio State
25,Minnesota Vikings,Mark Mullaney,DE,Colorado State
26,Pittsburgh Steelers,Dave Brown,DB,Michigan
27,New York Giants,Al Simpson,T,Colorado State
28,Los Angeles Rams,Monte Jackson,DB,San Diego State
29,Atlanta Falcons,Ralph Ortega,LB,Florida
30,San Diego Chargers,Louie Kelcher,DT,Southern Methodist
31,Chicago Bears,Mike Hartenstine,DE,Penn State
32,New Orleans Saints,Lee Gross,C,Auburn
33,San Diego Chargers,Fred Dean,DE,Louisiana Tech
34,Kansas City Chiefs,Elmore Stephens,--,Kentucky
35,San Francisco 49ers,Greg Collins,LB,Notre Dame
36,Miami Dolphins,Freddie Solomon,WR,Tampa
37,New York Jets,Anthony Davis,RB,USC
38,Detroit Lions,Doug English,DT,Texas
39,Cincinnati Bengals,Al Krevis,T,Boston College
40,Houston Oilers,Emmett Edwards,WR,Kansas
41,New England Patriots,Rod Shoate,LB,Oklahoma
42,Buffalo Bills,Bob Nelson,LB,Nebraska
43,Denver Broncos,Charlie Smith,--,North Carolina Central
44,Dallas Cowboys,Burton Lawless,G,Florida
45,Oakland Raiders,Charlie Phillips,DB,USC
46,St. Louis Cardinals,Jim Germany,--,New Mexico State
47,Green Bay Packers,Bill Bain,G,USC
48,Los Angeles Rams,Leroy Jones,DE,Norfolk State
49,Miami Dolphins,Stan Winfrey,RB,Arkansas State
50,Buffalo Bills,Glenn Lott,--,Drake
51,Pittsburgh Steelers,Bob Barber,DE,Grambling State
52,Minnesota Vikings,Art Riley,--,USC
53,Baltimore Colts,Mike Washington,DB,Alabama
54,Denver Broncos,Mike Franckowiak,RB,Central Michigan
55,Cincinnati Bengals,Gary Burley,DE,Pittsburgh
56,Baltimore Colts,Dave Pear,NT,Washington
57,Cleveland Browns,Oscar Roan,TE,Southern Methodist
58,Green Bay Packers,Willard Harrell,RB,U. of Pacific
59,Kansas City Chiefs,Cornelius Walker,--,Rice
60,New Orleans Saints,Andrew Jones,RB,Washington State
61,Los Angeles Rams,Geoff Reece,C,Washington State
62,New York Giants,Danny Buggs,WR,West Virginia
63,New Orleans Saints,Elois Grooms,DE,Tennessee Tech
64,Cincinnati Bengals,Gary Sheide,--,Brigham Young
65,Atlanta Falcons,Woody Thompson,RB,Miami (Fla.)
66,New England Patriots,Pete Cusick,NT,Ohio State
67,Los Angeles Rams,Dan Nugent,G,Auburn
68,New York Jets,Richard Wood,LB,USC
69,Denver Broncos,Drew Mahalic,LB,Notre Dame
70,Dallas Cowboys,Bob Breunig,LB,Arizona State
71,San Francisco 49ers,Jeff Hart,T,Oregon State
72,San Francisco 49ers,Steve Mike-Mayer,K,Maryland
73,San Diego Chargers,Mike Fuller,DB,Auburn
74,San Francisco 49ers,Wayne Baker,DT,Brigham Young
75,Miami Dolphins,Gerald Hill,--,Houston
76,Oakland Raiders,Louis Carter,RB,Maryland
77,Cincinnati Bengals,Bo Harris,LB,Louisiana State
78,Pittsburgh Steelers,Walter White,TE,Maryland
79,New York Giants,Robert Giblin,DB,Houston
80,Baltimore Colts,Marshall Johnson,WR,Houston
81,Atlanta Falcons,John Nessel,--,Penn State
82,Cleveland Browns,Tony Peters,DB,Oklahoma
83,Chicago Bears,Virgil Livers,DB,Western Kentucky
84,Denver Broncos,Steve Taylor,--,Georgia
85,San Francisco 49ers,Cleveland Elam,DT,Tennessee State
86,New England Patriots,Allen Carter,RB,USC
87,San Francisco 49ers,Frank Oliver,DB,Kentucky State
88,Green Bay Packers,Steve Luke,DB,Ohio State
89,Minnesota Vikings,Champ Henson,RB,Ohio State
90,Dallas Cowboys,Pat Donovan,T,Stanford
91,New England Patriots,Steve Burks,WR,Arkansas State
92,New Orleans Saints,John Starkebaum,--,Nebraska
93,Baltimore Colts,Paul Linford,--,Brigham Young
94,Detroit Lions,Craig Hertwig,T,Georgia
95,Denver Broncos,Rick Upchurch,WR,Minnesota
96,Dallas Cowboys,Randy Hughes,DB,Oklahoma
97,Cincinnati Bengals,Stan Fritts,RB,North Carolina State
98,Los Angeles Rams,Rod Perry,DB,Colorado
99,New Orleans Saints,Charles Hall,--,Tulane
100,Miami Dolphins,Bruce Elia,LB,Ohio State
101,San Diego Chargers,Kenneth Bernich,LB,Auburn
102,Buffalo Bills,Tom Donchez,RB,Penn State
103,Minnesota Vikings,Bruce Adams,--,Kansas
104,Pittsburgh Steelers,Harold Evans,--,Houston
105,Baltimore Colts,Roosevelt Leaks,RB,Texas
106,Miami Dolphins,Morris Owens,WR,Arizona State
107,Denver Broncos,Stan Rogers,T,Maryland
108,Washington Redskins,Mike Thomas,RB,Nevada-Las Vegas
109,Cleveland Browns,John Zimba,--,Villanova
110,Chicago Bears,Revie Sorey,G,Illinois
111,San Diego Chargers,Kevin Nosbusch,--,Notre Dame
112,Los Angeles Rams,Wayne Hammond,DT,Montana State
113,Dallas Cowboys,Kyle Davis,C,Oklahoma
114,San Francisco 49ers,Wayne Bullock,--,Notre Dame
115,Buffalo Bills,John McCrumbly,LB,Texas A&M
116,New England Patriots,Steve Grogan,QB,Kansas State
117,New England Patriots,Steve Freeman,DB,Mississippi State
118,New York Jets,Joe Wysock,--,Miami (Fla.)
119,Cleveland Browns,Jim Cope,LB,Ohio State
120,Cincinnati Bengals,Pat McInally,WR,Harvard
121,Denver Broncos,Rubin Carter,NT,Miami (Fla.)
122,Cincinnati Bengals,Jeff West,P,Cincinnati
123,Atlanta Falcons,Greg McCrary,TE,Clark Atlanta
124,St. Louis Cardinals,Harvey Goodman,G,Colorado
125,San Diego Chargers,Charles Waddell,TE,North Carolina
126,Los Angeles Rams,Rick Nuzum,C,Kentucky
127,Miami Dolphins,Barry Hill,DB,Iowa State
128,Oakland Raiders,David Humm,QB,Nebraska
129,Minnesota Vikings,Robert Miller,RB,Kansas
130,Pittsburgh Steelers,Brent Sexton,DB,Elon
131,Baltimore Colts,Donald Westbrook,WR,Nebraska
132,Atlanta Falcons,Fulton Kuykendall,LB,UCLA
133,Atlanta Falcons,Doug Payton,--,Colorado
134,San Diego Chargers,John Carroll,--,Oklahoma
135,Chicago Bears,Bob Avellini,QB,Maryland
136,San Diego Chargers,Billy Shields,T,Georgia Tech
137,Kansas City Chiefs,Morris LaGrand,RB,Tampa
138,Detroit Lions,Fred Cooper,--,Purdue
139,Kansas City Chiefs,Dave Wasick,--,San Jose State
140,Los Angeles Rams,Darius McCarthy,--,South Carolina State
141,Detroit Lions,Horace King,RB,Georgia
142,Cincinnati Bengals,Tom Shuman,--,Penn State
143,Miami Dolphins,Steve Towle,LB,Kansas
144,Detroit Lions,Dennis Franklin,WR,Michigan
145,Cincinnati Bengals,Rollen Smith,--,Arkansas
146,Houston Oilers,Jesse O'Neal,--,Grambling State
147,Washington Redskins,Mark Doak,--,Nebraska
148,Dallas Cowboys,Roland Woolsey,DB,Boise State
149,New Orleans Saints,Mike Lemon,LB,Kansas
150,Cleveland Browns,Charles Miller,--,West Virginia
151,Chicago Bears,Tom Hicks,LB,Illinois
152,St. Louis Cardinals,Larry Jameson,DT,Indiana
153,New York Jets,Tom Alward,G,Nebraska
154,Cleveland Browns,Henry Hynoski,RB,Temple
155,Minnesota Vikings,Bubba Broussard,--,Houston
156,Pittsburgh Steelers,Marvin Crenshaw,--,Nebraska
157,Baltimore Colts,Kim Jones,RB,Colorado State
158,New York Giants,Jim Obradovich,TE,USC
159,Atlanta Falcons,Mike Esposito,RB,Boston College
160,Baltimore Colts,Steve Joachim,QB,Temple
161,Cleveland Browns,Merle Wang,--,Texas Christian
162,Houston Oilers,Mike Biehle,--,Miami (Ohio)
163,New Orleans Saints,Steve Rogers,RB,Louisiana State
164,San Diego Chargers,Rickey Young,RB,Jackson State
165,Green Bay Packers,Tony Giaquinto,--,Central Connecticut State
166,Buffalo Bills,Gil Chapman,RB,Michigan
167,Philadelphia Eagles,Bill Capraun,--,Miami (Fla.)
168,Baltimore Colts,Derrel Luce,LB,Baylor
169,Detroit Lions,Mike Murphy,--,Drake
170,Cincinnati Bengals,Chris Devlin,LB,Penn State
171,Houston Oilers,Mark Cotney,DB,Cameron
172,New England Patriots,Lawrence Williams,WR,Texas Tech
173,Dallas Cowboys,Mike Hegman,LB,Tennessee State
174,Buffalo Bills,Reggie Cherry,--,Houston
175,Buffalo Bills,Harry Banks,--,Michigan
176,Los Angeles Rams,Pat Haden,QB,USC
177,St. Louis Cardinals,Steve Beaird,--,Baylor
178,Chicago Bears,Earl Douthitt,DB,Iowa
179,Miami Dolphins,Phillip Kent,--,Baylor
180,Oakland Raiders,James Daniels,--,Texas A&M
181,Minnesota Vikings,Henry Green,--,Southern University
182,Pittsburgh Steelers,Wayne Mattingly,--,Colorado
183,New York Giants,John Tate,LB,Jackson State
184,Baltimore Colts,John Bushong,DE,Western Kentucky
185,Atlanta Falcons,Brent Adams,T,Tennessee
186,Cleveland Browns,Barry Santini,--,Purdue
187,Baltimore Colts,Greg Denboer,--,Michigan
188,St. Louis Cardinals,John Adams,--,West Virginia
189,Kansas City Chiefs,Wayne Hoffman,--,Oklahoma
190,Pittsburgh Steelers,Tom Kropp,--,Nebraska-Kearney
191,San Francisco 49ers,Preston Kendrick,--,Florida
192,Baltimore Colts,Mario Cage,--,Northwestern State-Louisiana
193,New York Jets,James Scott,WR,Trinity Valley CC TX
194,Detroit Lions,Leonard Thompson,WR,Oklahoma State
195,Cincinnati Bengals,Ricky Davis,DB,Alabama
196,Houston Oilers,Jerry Lawrence,--,South Dakota State
197,Chicago Bears,Joe Harris,LB,Georgia Tech
198,Philadelphia Eagles,Jeff Bleamer,T,Penn State
199,Denver Broncos,Steve Foley,DB,Tulane
200,Dallas Cowboys,Mitch Hoopes,P,Arizona
201,Buffalo Bills,John Hill,--,Duke
202,St. Louis Cardinals,Louis Lauriano,--,Long Beach State
203,San Diego Chargers,Barry Collier,--,Georgia
204,Los Angeles Rams,John Washington,--,Tulane
205,Miami Dolphins,Barney Crawford,--,Harding
206,San Diego Chargers,Ralph Perretta,C,Purdue
207,Minnesota Vikings,Joe Hollimon,--,Arkansas State
208,Pittsburgh Steelers,Al Humphrey,--,Tulsa
209,Baltimore Colts,Royce McKinney,DB,Kentucky State
210,New York Giants,Mike Mahoney,--,Richmond
211,Atlanta Falcons,Brad Davis,RB,Louisiana State
212,Chicago Bears,Roger Stillwell,DT,Stanford
213,Cleveland Browns,Larry Poole,RB,Kent State
214,San Diego Chargers,Larry Keller,LB,Houston
215,Cleveland Browns,Floyd Hogan,--,Arkansas
216,New Orleans Saints,Michael Strachan,RB,Iowa State
217,Green Bay Packers,Jay Lynn Hodgin,--,South Carolina
218,San Francisco 49ers,James Johnson,--,Tennessee State
219,Detroit Lions,Steve Strinko,--,Michigan
220,Cincinnati Bengals,Greg Dubinetz,G,Yale
221,Houston Oilers,Bob Bruer,TE,Minnesota State-Mankato
222,Pittsburgh Steelers,Eugene Clark,--,UCLA
223,San Francisco 49ers,Dan Natale,--,Penn State
224,New York Jets,Everett Taylor,--,Memphis
225,Denver Broncos,Roussell Williams,--,Arizona
226,Dallas Cowboys,Ed Jones,DB,Rutgers
227,Cincinnati Bengals,Lofell Williams,--,Virginia Union
228,Washington Redskins,Dallas Hickman,DE,California
229,Los Angeles Rams,Gordon Riegel,--,Stanford
230,San Francisco 49ers,Ceasar Douglas,--,Illinois Wesleyan
231,Miami Dolphins,James Wilson,--,Clark Atlanta
232,Oakland Raiders,Harry Knight,--,Richmond
233,Minnesota Vikings,John Passananti,--,Western Illinois
234,Pittsburgh Steelers,Bruce Reimer,--,North Dakota State
235,New York Giants,Terry McClowry,--,Michigan State
236,Baltimore Colts,Phil Waganheim,--,Maryland
237,Atlanta Falcons,Marshall Mills,--,West Virginia
238,Cleveland Browns,Stan Lewis,DE,Wayne State (Neb.)
239,Miami Dolphins,Clyde Russell,--,Oklahoma
240,Denver Broncos,Hank Engelhardt,--,Pacific (Ore)
241,New Orleans Saints,Chuck Heater,--,Michigan
242,San Diego Chargers,Otha Bradley,--,USC
243,San Francisco 49ers,Donnie Layton,--,South Carolina State
244,Green Bay Packers,Bill Cooke,DT,Massachusetts
245,Cincinnati Bengals,Rocky Felker,--,Mississippi State
246,Houston Oilers,Alan Pringle,K,Rice
247,Pittsburgh Steelers,Kirk Heyer,--,Nebraska-Kearney
248,Philadelphia Eagles,Ken Schroy,DB,Maryland
249,New York Jets,Charles James,--,Jackson State
250,Detroit Lions,Brad Boyd,--,Louisiana State
251,Denver Broncos,Steve Haggerty,WR,Nevada-Las Vegas
252,Dallas Cowboys,Dennis Booker,--,Millersville
253,Buffalo Bills,Roland Hooks,RB,North Carolina State
254,Chicago Bears,Mike Julius,--,St. Thomas
255,St. Louis Cardinals,Mike McGraw,LB,Wyoming
256,Miami Dolphins,Joe Jackson,--,Penn State
257,Miami Dolphins,Joe Danelo,K,Washington State
258,Minnesota Vikings,Neil Clabo,P,Tennessee
259,Oakland Raiders,Steve Sylvester,C,Notre Dame
260,Pittsburgh Steelers,Archie Gray,--,Wyoming
261,Baltimore Colts,Dave Hazel,--,Ohio State
262,New York Giants,George Martin,DE,Oregon
263,Atlanta Falcons,Jeff Merrow,DE,West Virginia
264,Chicago Bears,Mike Dean,--,Texas
265,Cleveland Browns,Tom Marinelli,--,Boston College
266,New Orleans Saints,Danny Lee,--,Louisiana-Monroe
267,San Diego Chargers,Vince Phason,--,Arizona
268,Kansas City Chiefs,Dale Hegland,--,Minnesota
269,Green Bay Packers,Bob Martin,--,Washington
270,San Francisco 49ers,Gene Hernandez,--,Texas Christian
271,Houston Oilers,John Sawyer,TE,Southern Mississippi
272,New England Patriots,Rene Garnett,--,Idaho State
273,Philadelphia Eagles,Keith Rowen,--,Stanford
274,New York Jets,Jon Bradford,--,Central State (Ohio)
275,Detroit Lions,Steve Myers,--,Ohio State
276,Cincinnati Bengals,Marvin Cobb,DB,USC
277,Washington Redskins,Ardell Johnson,--,Nebraska
278,Dallas Cowboys,Greg Krpalek,--,Oregon State
279,Buffalo Bills,Tom Drake,--,Michigan
280,St. Louis Cardinals,Jerry Latin,RB,Northern Illinois
281,Los Angeles Rams,Howard Strickland,--,California
282,Washington Redskins,Jerry Hackenbruck,--,Oregon State
283,Miami Dolphins,John Dilworth,--,Northwestern State-Louisiana
284,San Diego Chargers,Ike McBee,--,San Jose State
285,Minnesota Vikings,Ike Spencer,--,Utah
286,Pittsburgh Steelers,Randy Little,--,West Liberty State
287,New York Giants,Marsh White,RB,Arkansas
288,Baltimore Colts,Brad Storm,--,Iowa State
289,Atlanta Falcons,Alonza Pickett,--,Texas Southern
290,Cleveland Browns,Dick Ambrose,LB,Virginia
291,Chicago Bears,Doug Plank,DB,Ohio State
292,San Diego Chargers,Jerry Dahl,--,North Dakota State
293,Kansas City Chiefs,James Rackley,--,Florida A&M
294,New Orleans Saints,Ron Gustafson,--,North Dakota State
295,San Francisco 49ers,Rick Worley,--,Howard Payne
296,Green Bay Packers,Carlos Brown,QB,U. of Pacific
297,New England Patriots,Matt Kendon,--,Idaho State
298,Philadelphia Eagles,Richard Pawlewicz,--,William & Mary
299,New York Jets,Bert Cooper,LB,Florida State
300,Detroit Lions,Andre Roundtree,--,Iowa State
301,Cincinnati Bengals,Jack Novak,TE,Wisconsin
302,Houston Oilers,Willie Miller,WR,Colorado State
303,Denver Broncos,Harry Walters,--,Maryland
304,Dallas Cowboys,Chuck Bland,--,Cincinnati
305,Buffalo Bills,Mark Johnson,DE,Missouri
306,New England Patriots,Condredge Holloway,--,Tennessee
307,Los Angeles Rams,Chandler Williams,--,Lincoln (MO)
308,St. Louis Cardinals,Ben Jones,--,Louisiana State
309,Miami Dolphins,Joe Yancey,--,Henderson State
310,Oakland Raiders,Jack Magee,--,Boston College
311,Minnesota Vikings,Autry Beamon,DB,Texas A&M-Commerce
312,Pittsburgh Steelers,Greg Murphy,--,Penn State
313,Baltimore Colts,John Roman,T,Idaho State
314,New York Giants,Ricky Townsend,--,Tennessee
315,Atlanta Falcons,Carl Russ,LB,Michigan
316,Chicago Bears,Charles McDaniel,--,Louisiana Tech
317,Cleveland Browns,Willie Armstead,--,Utah
318,Kansas City Chiefs,John Snider,--,Stanford
319,New Orleans Saints,Jim Upchurch,--,Arizona
320,San Diego Chargers,Pete Demmerle,--,Notre Dame
321,Green Bay Packers,Bob Fuhriman,--,Utah State
322,San Francisco 49ers,Dale Mitchell,LB,USC
323,Philadelphia Eagles,Tom Ehlers,LB,Kentucky
324,New York Jets,Dan Spivey,--,Georgia
325,Detroit Lions,Jim Smith,--,North Carolina Central
326,Cincinnati Bengals,Ron Rosenberg,--,Montana
327,Houston Oilers,Ricky Scales,--,Virginia Tech
328,New England Patriots,Joe Harvey,--,Northern Michigan
329,Denver Broncos,Eric Penick,--,Notre Dame
330,Dallas Cowboys,Herbert Scott,G,Virginia Union
331,Buffalo Bills,Mark Dienhart,--,St. Thomas
332,Los Angeles Rams,A.J. Jacobs,--,Louisville
333,St. Louis Cardinals,Steve Lindgren,--,Hamline
334,Miami Dolphins,Leonard Isabell,--,Tulsa
335,San Diego Chargers,Glen Printers,--,Southern Colorado
336,Minnesota Vikings,Mike Hurd,--,Michigan State
337,Pittsburgh Steelers,Robert Gaddis,WR,Mississippi Valley State
338,Washington Redskins,Morris McKie,--,North Carolina A&T
339,Miami Dolphins,James Lewis,--,Tennessee State
340,Baltimore Colts,Mike Smith,--,Southern Methodist
341,Atlanta Falcons,Steve Robinson,--,Tuskegee
342,Cleveland Browns,Tim Barrett,--,John Carroll
343,Chicago Bears,Walter Hartfield,--,Texas State
344,New Orleans Saints,Randy Rhino,--,Georgia Tech
345,San Diego Chargers,Reggie Barnett,--,Notre Dame
346,Kansas City Chiefs,Gene Moshier,--,Vanderbilt
347,San Francisco 49ers,David Henson,--,Abilene Christian
348,Green Bay Packers,Stan Blackmon,--,North Texas
349,New York Jets,Joe Fields,C,Widener
350,Detroit Lions,Jim McMillan,--,Boise State
351,Cincinnati Bengals,Frank Haywood,--,North Carolina State
352,Houston Oilers,Jody Medford,--,Rice
353,New England Patriots,Tom Gossom,--,Auburn
354,Philadelphia Eagles,Larry O'Rourke,--,Ohio State
355,Denver Broncos,Jerry Arnold,--,Oklahoma
356,Dallas Cowboys,Scott Laidlaw,RB,Stanford
357,Buffalo Bills,Robert Evans,--,Morris Brown
358,St. Louis Cardinals,Ritch Bahe,--,Nebraska
359,Washington Redskins,Dave Benson,--,Weber State
360,Los Angeles Rams,Arthur Allen,--,Clark Atlanta
361,Miami Dolphins,John Graham,--,Colorado State
362,Oakland Raiders,Tom Doyle,--,Yale
363,Minnesota Vikings,Mike Strickland,--,Eastern Michigan
364,Pittsburgh Steelers,Mike Collier,RB,Morgan State
365,Baltimore Colts,John Goodie,--,Langston
366,New York Giants,Jim O'Connor,--,Drake
367,Atlanta Falcons,Jimmy Robinson,WR,Georgia Tech
368,Chicago Bears,Steve Marcantonio,--,Miami (Fla.)
369,Cleveland Browns,Willie Moore,--,Johnson C. Smith
370,San Diego Chargers,John Roush,--,Oklahoma
371,Pittsburgh Steelers,Jim Thatcher,--,Langston
372,New Orleans Saints,Grant Burget,--,Oklahoma
373,Green Bay Packers,Randy Allen,--,Southern University
374,San Francisco 49ers,Rich Lavin,--,Western Illinois
375,Detroit Lions,Rudy Green,--,Yale
376,Cincinnati Bengals,Greg Enright,--,Southern Oregon
377,Houston Oilers,Jack Holmes,RB,Texas Southern
378,New England Patriots,Don Clayton,--,Murray State
379,Philadelphia Eagles,Clayton Korver,--,Northwestern
380,New York Jets,Brison Manor,DE,Arkansas
381,Denver Broncos,Ken Shelton,--,Virginia
382,Dallas Cowboys,Willie Hamilton,--,Arizona
383,Buffalo Bills,Chris Kupec,--,North Carolina
384,Washington Redskins,Art Kuehn,C,UCLA
385,Los Angeles Rams,Alvin White,--,Oregon State
386,St. Louis Cardinals,Ron Franklin,--,Boise State
387,Miami Dolphins,Skip Johns,--,Carson-Newman
388,Minnesota Vikings,Ollie Bakken,--,Minnesota
389,Oakland Raiders,Paul Careathers,--,Tennessee
390,Pittsburgh Steelers,Marty Smith,DE,Louisville
391,New York Giants,Jim Micklos,--,Ball State
392,Baltimore Colts,Bill Malouf,--,Mississippi
393,Atlanta Falcons,Steve Knutson,G,USC
394,Cleveland Browns,John McKay,WR,USC
395,Chicago Bears,Witt Beckman,--,Miami (Fla.)
396,Kansas City Chiefs,Mark Peterson,--,Illinois
397,New Orleans Saints,Mike McDonald,LB,Catawba
398,San Diego Chargers,Chip Salvestrini,--,Yankton
399,Baltimore Colts,Mike Evavold,--,Macalester
400,Green Bay Packers,Bob McCaffrey,C,USC
401,Cincinnati Bengals,John Tuttle,--,Kansas State
402,Houston Oilers,Ken Lambert,--,Virginia Tech
403,New England Patriots,Kerry Marbury,--,West Virginia
404,Philadelphia Eagles,Calvin Jones,--,Texas Tech
405,New York Jets,Greg Wells,--,Albany State (Ga.)
406,Detroit Lions,Les Chaves,--,Kansas State
407,Dallas Cowboys,Pete Clark,--,Colorado State
408,Buffalo Bills,Tom Fine,--,Notre Dame
409,Denver Broncos,Bubba Bridges,--,Colorado
410,Los Angeles Rams,Francis Reynolds,--,Alcorn State
411,St. Louis Cardinals,Mark Miller,--,Missouri
412,Washington Redskins,Dennis Pavelka,--,Nebraska
413,Miami Dolphins,Vernon Smith,--,Georgia
414,Minnesota Vikings,Tom Goedjen,--,Iowa State
415,Pittsburgh Steelers,Miller Bassler,--,Houston
416,Baltimore Colts,Bob Smith,--,Maryland
417,Baltimore Colts,David McKnight,--,Georgia
418,New York Giants,Rondy Colbert,DB,Lamar
419,Atlanta Falcons,Mitch Anderson,--,Northwestern
420,Chicago Bears,Roland Harper,RB,Louisiana Tech
421,Cleveland Browns,Dave Graf,LB,Penn State
422,New Orleans Saints,Greg Westbrooks,LB,Colorado
423,San Diego Chargers,Neal Jeffrey,QB,Baylor
424,Kansas City Chiefs,Mike Bulino,--,Pittsburgh
425,Green Bay Packers,Tom Ray,--,Central Michigan
426,Baltimore Colts,Mike Bengard,--,Northwestern (Ia)
427,Houston Oilers,Ricky Seeker,--,Texas A&M
428,New England Patriots,Myke Horton,--,UCLA
429,Philadelphia Eagles,Gary Webb,--,Temple
430,New York Jets,Mike Bartoszek,--,Ohio State
431,Detroit Lions,Mark Lancaster,--,Tulsa
432,Cincinnati Bengals,Elvin Charity,--,Yale
433,Denver Broncos,Lester Sherman,--,Albany State (Ga.)
434,Dallas Cowboys,Jim Testerman,--,Dayton
435,Buffalo Bills,Jeff Turcotte,--,Colorado
436,St. Louis Cardinals,Ken Monroe,--,Indiana State
437,Washington Redskins,Carl Taylor,--,Memphis
438,Los Angeles Rams,Skip Boyd,--,Washington
439,Miami Dolphins,Dwaine Copeland,--,Middle Tennessee State
440,Baltimore Colts,Frank Russell,--,Maryland
441,Minnesota Vikings,Adolph Bellizeare,--,Pennsylvania
442,Pittsburgh Steelers,Stan Hegener,--,Nebraska