Rk,Team,G,Pts/G,TotPts,Scrm Plys,Yds/G,Yds/P,1st/G,3rd Md,3rd Att,3rd Pct,4th Md,4th Att,4th Pct,Pen,Pen Yds,ToP/G,FUM,Lost
1,Oakland Raiders,16,26.2,419,"1,108",382.2,5.5,21.6,92,236,39,7,14,50,117,977,33:51,26,12
2,Minnesota Vikings,16,22.4,359,"1,028",355.4,5.5,20.3,88,212,42,9,18,50,81,668,30:14,31,15
3,Cincinnati Bengals,16,25.3,405,"1,091",355.1,5.2,21.9,102,227,45,11,16,69,107,951,32:03,23,10
4,Arizona Cardinals,16,23.7,379,"1,049",339.1,5.2,18.6,76,222,34,6,11,54,113,981,31:36,16,5
5,Miami Dolphins,16,20.4,327,"1,004",335.2,5.3,18.7,92,215,43,7,18,39,92,892,29:53,31,17
6,Baltimore Ravens,16,21.6,345,"1,069",335.2,5.0,19.1,94,234,40,7,14,50,106,828,32:09,23,11
7,New York Jets,16,17.9,287,"1,057",332.5,5.0,18.8,72,228,32,8,21,38,99,832,30:43,27,7
8,Jacksonville Jaguars,16,19.9,318,"1,035",327.4,5.1,19.9,102,226,45,12,23,52,90,800,30:31,26,15
9,Tennessee Oilers,16,19.4,310,992,326.9,5.3,18.2,80,205,39,9,20,45,94,830,28:49,32,18
10,San Diego Chargers,16,26.6,425,"1,048",322.9,4.9,19.2,85,221,38,7,18,39,101,784,30:38,21,11
11,Atlanta Falcons,16,22.6,361,960,319.1,5.3,17.1,78,213,37,10,12,83,115,872,28:31,27,10
12,New England Patriots,16,18.1,289,"1,100",317.8,4.6,20.1,90,233,39,16,30,53,106,763,32:17,30,13
13,New York Giants,16,16.6,265,"1,082",316.7,4.7,19.4,78,227,34,7,20,35,122,"1,056",31:05,33,17
14,St. Louis Rams,16,22.4,359,"1,021",316.6,5.0,18.5,76,215,35,5,11,46,133,"1,064",30:13,27,14
15,Washington Redskins,16,18.1,289,"1,058",314.4,4.8,18.2,79,237,33,12,21,57,96,849,31:05,36,14
16,Carolina Panthers,16,19.6,314,"1,023",311.2,4.9,18.1,82,222,37,6,18,33,97,757,30:17,26,11
17,Detroit Lions,16,19.1,306,"1,021",309.2,4.8,16.8,85,236,36,5,11,46,112,841,31:27,24,8
18,Philadelphia Eagles,16,23.2,372,"1,009",308.2,4.9,17.9,80,217,37,8,14,57,86,708,29:25,25,12
19,Chicago Bears,16,26.3,421,935,305.5,5.2,17.6,60,189,32,3,9,33,93,763,27:07,25,17
20,Kansas City Chiefs,16,14.5,232,974,305.0,5.0,17.4,65,206,32,4,13,31,113,977,29:07,30,13
21,Indianapolis Colts,16,25.1,401,928,303.4,5.2,17.6,83,199,42,4,14,29,102,861,27:04,23,13
22,Buffalo Bills,16,22.9,367,"1,041",303.3,4.7,16.6,85,240,35,7,16,44,98,992,32:27,23,7
23,Seattle Seahawks,16,22.6,362,959,303.1,5.1,17.9,66,198,33,8,16,50,100,820,29:37,33,16
24,Green Bay Packers,16,17.6,282,"1,047",301.7,4.6,18.0,77,232,33,12,24,50,114,945,29:55,25,11
25,Pittsburgh Steelers,16,19.2,307,"1,005",294.1,4.7,17.8,102,228,45,7,13,54,90,708,28:23,26,14
26,Denver Broncos,16,17.9,287,951,291.9,4.9,16.1,65,207,31,8,19,42,130,"1,118",28:16,27,13
27,New Orleans Saints,16,20.4,327,"1,073",290.3,4.3,17.5,102,252,40,7,12,58,110,895,32:14,31,15
28,Tampa Bay Buccaneers,16,16.4,263,982,289.2,4.7,16.6,75,220,34,11,17,65,93,814,30:38,21,13
29,Dallas Cowboys,16,19.6,314,"1,022",282.2,4.4,17.6,89,233,38,5,11,46,99,757,30:23,27,12
30,San Francisco 49ers,16,16.6,265,949,250.8,4.2,15.1,76,219,35,12,21,57,91,742,27:32,24,16
