Rk,Team,G,Pts/G,TotPts,Scrm Plys,Yds/G,Yds/P,1st/G,3rd Md,3rd Att,3rd Pct,4th Md,4th Att,4th Pct,Pen,Pen Yds,ToP/G,FUM,Lost
1,Philadelphia Eagles,14,21.6,302,889,330.1,5.2,17.9,--,--,0,--,--,0,94,908,0:00,--,--
2,Buffalo Bills,14,28.1,394,895,328.9,5.1,17.9,--,--,0,--,--,0,89,883,0:00,--,--
3,San Diego Chargers,14,24.4,341,859,325.6,5.3,19.4,--,--,0,--,--,0,84,887,0:00,--,--
4,Chicago Bears,14,19.7,276,899,322.9,5.0,16.7,--,--,0,--,--,0,78,819,0:00,--,--
5,New Orleans Saints,14,24.8,347,852,317.0,5.2,18.6,--,--,0,--,--,0,98,967,0:00,--,--
6,New York Giants,14,25.9,362,800,311.9,5.5,16.3,--,--,0,--,--,0,69,725,0:00,--,--
7,St. Louis Cardinals,14,19.9,279,881,311.8,5.0,17.4,--,--,0,--,--,0,79,831,0:00,--,--
8,New York Jets,14,21.4,299,841,311.2,5.2,16.8,--,--,0,--,--,0,81,814,0:00,--,--
9,Pittsburgh Steelers,14,20.9,292,881,303.4,4.8,16.1,--,--,0,--,--,0,81,784,0:00,--,--
10,Cleveland Browns,14,19.5,273,848,299.6,4.9,16.6,--,--,0,--,--,0,86,772,0:00,--,--
11,Oakland Raiders,14,19.9,278,871,295.5,4.7,17.3,--,--,0,--,--,0,80,832,0:00,--,--
12,New England Patriots,14,23.2,325,856,290.9,4.8,16.9,--,--,0,--,--,0,60,568,0:00,--,--
13,Los Angeles Rams,14,18.6,260,879,288.4,4.6,17.1,--,--,0,--,--,0,62,665,0:00,--,--
14,Green Bay Packers,14,21.3,298,861,286.3,4.7,16.4,--,--,0,--,--,0,60,514,0:00,--,--
15,Cincinnati Bengals,14,18.9,265,811,279.0,4.8,15.2,--,--,0,--,--,0,72,722,0:00,--,--
16,Detroit Lions,14,20.4,286,756,275.6,5.1,15.0,--,--,0,--,--,0,97,942,0:00,--,--
17,Denver Broncos,14,19.6,275,826,272.8,4.6,14.7,--,--,0,--,--,0,78,771,0:00,--,--
18,Houston Oilers,14,23.6,330,880,271.1,4.3,16.9,--,--,0,--,--,0,75,916,0:00,--,--
19,Atlanta Falcons,14,19.8,277,874,270.5,4.3,16.9,--,--,0,--,--,0,61,614,0:00,--,--
20,Kansas City Chiefs,14,14.9,208,813,269.1,4.6,15.9,--,--,0,--,--,0,71,751,0:00,--,--
21,San Francisco 49ers,14,15.4,216,787,262.8,4.7,14.2,--,--,0,--,--,0,75,610,0:00,--,--
22,Miami Dolphins,14,12.4,174,800,261.5,4.6,15.3,--,--,0,--,--,0,62,569,0:00,--,--
23,Washington Redskins,14,13.6,190,855,251.6,4.1,15.2,--,--,0,--,--,0,93,720,0:00,--,--
24,Dallas Cowboys,14,15.9,222,817,247.7,4.2,14.3,--,--,0,--,--,0,61,647,0:00,--,--
25,Minnesota Vikings,14,9.9,139,879,243.3,3.9,13.9,--,--,0,--,--,0,57,615,0:00,--,--
26,Baltimore Colts,14,10,140,746,203.7,3.8,11.9,--,--,0,--,--,0,67,687,0:00,--,--
