Rk,Team,G,Pts/G,TotPts,Att,Att/G,Yds,Avg,Yds/G,TD,Lng,1st,1st%,20+,40+,FUM
1,Atlanta Falcons,16,21.2,340,524,32.8,"2,672",5.1,167.0,20,60,133,25.4,22,4,8
2,Pittsburgh Steelers,16,23.2,372,618,38.6,"2,464",4.0,154.0,16,58,134,21.7,10,1,6
3,New York Jets,16,20.8,333,527,32.9,"2,388",4.5,149.2,15,33,135,25.6,10,0,6
4,Denver Broncos,16,23.8,381,534,33.4,"2,333",4.4,145.8,13,51T,127,23.8,13,3,13
5,Kansas City Chiefs,16,30.2,483,496,31.0,"2,289",4.6,143.1,31,46T,138,27.8,10,2,7
6,San Diego Chargers,16,27.9,446,525,32.8,"2,185",4.2,136.6,24,52,131,25.0,19,4,11
7,New England Patriots,16,27.3,437,524,32.8,"2,134",4.1,133.4,15,44,120,22.9,9,1,7
8,Seattle Seahawks,16,23.2,371,468,29.2,"2,095",4.5,130.9,17,44,110,23.5,15,2,11
9,Baltimore Ravens,16,19.8,317,491,30.7,"2,063",4.2,128.9,11,75T,103,21.0,8,3,7
10,Green Bay Packers,16,26.5,424,441,27.6,"1,908",4.3,119.2,9,90T,98,22.2,11,2,9
11,New York Giants,16,18.9,303,424,26.5,"1,904",4.5,119.0,18,72T,105,24.8,12,3,9
12,Houston Texans,16,19.3,309,481,30.1,"1,882",3.9,117.6,16,44,103,21.4,7,2,9
13,Buffalo Bills,16,24.7,395,483,30.2,"1,874",3.9,117.1,15,48,102,21.1,16,2,10
14,Tennessee Titans,16,21.5,344,420,26.2,"1,871",4.5,116.9,12,52,85,20.2,9,2,10
15,Indianapolis Colts,16,32.6,522,427,26.7,"1,852",4.3,115.8,10,55,94,22.0,7,2,9
16,Jacksonville Jaguars,16,16.3,261,446,27.9,"1,850",4.1,115.6,9,46,88,19.7,9,2,5
17,Cincinnati Bengals,16,23.4,374,437,27.3,"1,839",4.2,114.9,14,52,93,21.3,8,1,8
18,Minnesota Vikings,16,25.3,405,387,24.2,"1,823",4.7,113.9,8,49,98,25.3,8,1,9
19,Detroit Lions,16,18.5,296,407,25.4,"1,777",4.4,111.1,7,74,92,22.6,14,2,3
20,Dallas Cowboys,16,18.3,293,449,28.1,"1,769",3.9,110.6,14,53,101,22.5,10,1,10
21,Washington Redskins,16,15,240,471,29.4,"1,765",3.7,110.3,6,64T,91,19.3,8,1,8
22,Arizona Cardinals,16,17.8,284,475,29.7,"1,668",3.5,104.2,15,62,86,18.1,9,1,8
23,Cleveland Browns,16,17.2,276,441,27.6,"1,657",3.8,103.6,6,46,94,21.3,9,1,16
24,Philadelphia Eagles,16,24.1,386,376,23.5,"1,639",4.4,102.4,10,50,87,23.1,11,3,2
25,Chicago Bears,16,14.4,231,430,26.9,"1,624",3.8,101.5,10,54,84,19.5,7,2,10
25,St. Louis Rams,16,19.9,319,381,23.8,"1,624",4.3,101.5,11,48,96,25.2,7,3,2
27,New Orleans Saints,16,21.8,348,406,25.4,"1,606",4.0,100.4,15,71,82,20.2,10,3,12
28,Carolina Panthers,16,22.2,355,422,26.4,"1,582",3.7,98.9,10,71,85,20.1,4,2,5
29,Tampa Bay Buccaneers,16,18.8,301,393,24.6,"1,489",3.8,93.1,9,78T,74,18.8,5,2,10
30,San Francisco 49ers,16,16.2,259,413,25.8,"1,449",3.5,90.6,10,60,83,20.1,7,1,11
31,Miami Dolphins,16,17.2,275,384,24.0,"1,339",3.5,83.7,10,53,71,18.5,7,1,9
32,Oakland Raiders,16,20,320,327,20.4,"1,295",4.0,80.9,10,60,75,22.9,6,3,6
