Rk,Team,G,Pts/G,TotPts,Att,Att/G,Yds,Avg,Yds/G,TD,Lng,1st,1st%,20+,40+,FUM
1,Oakland Raiders,16,29.9,479,520,32.5,"2,470",4.8,154.4,23,80T,128,24.6,20,4,8
2,Cincinnati Bengals,16,11.6,185,495,30.9,"2,314",4.7,144.6,13,80T,119,24.0,19,6,12
3,Denver Broncos,16,30.3,485,516,32.2,"2,311",4.5,144.4,21,80T,124,24.0,17,3,9
4,Pittsburgh Steelers,16,20.1,321,527,32.9,"2,248",4.3,140.5,19,45T,124,23.5,16,1,9
5,Baltimore Ravens,16,20.8,333,511,31.9,"2,199",4.3,137.4,9,45,116,22.7,11,1,8
6,Minnesota Vikings,16,24.8,397,428,26.8,"2,129",5.0,133.1,14,72T,107,25.0,16,4,10
7,Tennessee Titans,16,21.6,346,547,34.2,"2,084",3.8,130.2,14,35T,107,19.6,9,0,12
8,New Orleans Saints,16,22.1,354,505,31.6,"2,068",4.1,129.2,14,40,117,23.2,7,2,13
9,Tampa Bay Buccaneers,16,24.2,388,490,30.6,"2,066",4.2,129.1,18,70T,111,22.7,12,2,6
10,Jacksonville Jaguars,16,22.9,367,481,30.1,"2,032",4.2,127.0,18,71,109,22.7,13,2,11
11,New York Giants,16,20.5,328,507,31.7,"2,009",4.0,125.6,16,78T,100,19.7,13,3,8
12,Dallas Cowboys,16,18.4,294,463,28.9,"1,953",4.2,122.1,15,52,116,25.1,12,1,12
13,Buffalo Bills,16,19.7,315,475,29.7,"1,922",4.0,120.1,11,59,111,23.4,10,1,9
14,Miami Dolphins,16,20.2,323,496,31.0,"1,894",3.8,118.4,16,68T,104,21.0,10,2,8
15,Philadelphia Eagles,16,21.9,351,397,24.8,"1,882",4.7,117.6,13,85T,88,22.2,11,3,9
16,Indianapolis Colts,16,26.8,429,435,27.2,"1,859",4.3,116.2,14,30,111,25.5,9,0,7
17,St. Louis Rams,16,33.8,540,383,23.9,"1,843",4.8,115.2,26,49,112,29.2,8,1,3
18,San Francisco 49ers,16,24.2,388,416,26.0,"1,801",4.3,112.6,15,42,98,23.6,10,1,8
19,Washington Redskins,16,17.6,281,445,27.8,"1,748",3.9,109.2,14,50T,98,22.0,8,1,6
20,Detroit Lions,16,19.2,307,448,28.0,"1,747",3.9,109.2,15,34,101,22.5,7,0,8
21,Chicago Bears,16,13.5,216,417,26.1,"1,736",4.2,108.5,6,52,89,21.3,10,1,12
22,Seattle Seahawks,16,20,320,403,25.2,"1,720",4.3,107.5,10,55,98,24.3,8,3,18
23,Green Bay Packers,16,22.1,353,404,25.2,"1,643",4.1,102.7,13,39T,88,21.8,12,0,8
24,New York Jets,16,20.1,321,418,26.1,"1,471",3.5,91.9,11,55,84,20.1,8,1,7
25,Kansas City Chiefs,16,22.2,355,383,23.9,"1,465",3.8,91.6,12,69,84,21.9,8,1,7
26,New England Patriots,16,17.2,276,424,26.5,"1,390",3.3,86.9,9,35,80,18.9,4,0,12
27,Arizona Cardinals,16,13.1,210,343,21.4,"1,278",3.7,79.9,6,29,71,20.7,10,0,12
28,Atlanta Falcons,16,15.8,252,350,21.9,"1,214",3.5,75.9,6,42,65,18.6,7,1,11
29,Carolina Panthers,16,19.4,310,363,22.7,"1,186",3.3,74.1,7,43,63,17.4,6,2,3
30,Cleveland Browns,16,10.1,161,336,21.0,"1,085",3.2,67.8,7,42,53,15.8,2,1,5
31,San Diego Chargers,16,16.8,269,351,21.9,"1,062",3.0,66.4,7,26,63,17.9,3,0,16
